{"count":66927,"next":"https://gutendex.com/books/?page=2","previous":"","results":[{"id":1342,"title":"Pride and Prejudice","authors":[{"name":"Austen, Jane","birt_Year":0,"death_Year":1817}],"translators":[],"subjects":["Courtship -- Fiction","Domestic fiction","England -- Fiction","Love stories","Sisters -- Fiction","Social classes -- Fiction","Young women -- Fiction"],"bookshelves":["Best Books Ever Listings","Harvard Classics"],"languages":["en"],"copyright":false,"media_Type":"Text","formats":{"application/epub+zip":"https://www.gutenberg.org/ebooks/1342.epub.images","application/rdf+xml":"https://www.gutenberg.org/ebooks/1342.rdf","application/x-mobipocket-ebook":"https://www.gutenberg.org/ebooks/1342.kindle.images","application/zip":"https://www.gutenberg.org/files/1342/1342-h.zip","image/jpeg":"https://www.gutenberg.org/cache/epub/1342/pg1342.cover.medium.jpg","text/html":"https://www.gutenberg.org/ebooks/1342.html.images","text/html; charset=utf-8":"https://www.gutenberg.org/files/1342/1342-h/1342-h.htm","text/plain; charset=utf-8":"https://www.gutenberg.org/files/1342/1342-0.zip"},"download_Count":56860},{"id":11,"title":"Alice's Adventures in Wonderland","authors":[{"name":"Carroll, Lewis","birt_Year":0,"death_Year":1898}],"translators":[],"subjects":["Alice (Fictitious character from Carroll) -- Juvenile fiction","Children's stories","Fantasy fiction","Imaginary places -- Juvenile fiction"],"bookshelves":["Children's Literature"],"languages":["en"],"copyright":false,"media_Type":"Text","formats":{"application/epub+zip":"https://www.gutenberg.org/ebooks/11.epub.images","application/rdf+xml":"https://www.gutenberg.org/ebooks/11.rdf","application/x-mobipocket-ebook":"https://www.gutenberg.org/ebooks/11.kindle.images","application/zip":"https://www.gutenberg.org/files/11/11-h.zip","image/jpeg":"https://www.gutenberg.org/cache/epub/11/pg11.cover.medium.jpg","text/html":"https://www.gutenberg.org/ebooks/11.html.images","text/html; charset=utf-8":"https://www.gutenberg.org/files/11/11-h/11-h.htm","text/plain; charset=utf-8":"https://www.gutenberg.org/files/11/11-0.zip"},"download_Count":27444},{"id":1080,"title":"A Modest Proposal: For preventing the children of poor people in Ireland, from being a burden on their parents or country, and for making them beneficial to the publick","authors":[{"name":"Swift, Jonathan","birt_Year":0,"death_Year":1745}],"translators":[],"subjects":["Ireland -- Politics and government -- 18th century -- Humor","Political satire, English","Religious satire, English"],"bookshelves":[],"languages":["en"],"copyright":false,"media_Type":"Text","formats":{"application/epub+zip":"https://www.gutenberg.org/ebooks/1080.epub.images","application/rdf+xml":"https://www.gutenberg.org/ebooks/1080.rdf","application/x-mobipocket-ebook":"https://www.gutenberg.org/ebooks/1080.kindle.images","application/zip":"https://www.gutenberg.org/files/1080/1080-h.zip","image/jpeg":"https://www.gutenberg.org/cache/epub/1080/pg1080.cover.small.jpg","text/html":"https://www.gutenberg.org/ebooks/1080.html.images","text/html; charset=utf-8":"https://www.gutenberg.org/files/1080/1080-h/1080-h.htm","text/plain; charset=utf-8":"https://www.gutenberg.org/files/1080/1080-0.zip"},"download_Count":20559},{"id":43,"title":"The Strange Case of Dr. Jekyll and Mr. Hyde","authors":[{"name":"Stevenson, Robert Louis","birt_Year":0,"death_Year":1894}],"translators":[],"subjects":["Horror tales","London (England) -- Fiction","Multiple personality -- Fiction","Physicians -- Fiction","Psychological fiction","Science fiction","Self-experimentation in medicine -- Fiction"],"bookshelves":["Horror","Movie Books","Precursors of Science Fiction"],"languages":["en"],"copyright":false,"media_Type":"Text","formats":{"application/epub+zip":"https://www.gutenberg.org/ebooks/43.epub.images","application/rdf+xml":"https://www.gutenberg.org/ebooks/43.rdf","application/x-mobipocket-ebook":"https://www.gutenberg.org/ebooks/43.kindle.images","application/zip":"https://www.gutenberg.org/files/43/43-h.zip","image/jpeg":"https://www.gutenberg.org/cache/epub/43/pg43.cover.medium.jpg","text/html":"https://www.gutenberg.org/ebooks/43.html.images","text/html; charset=utf-8":"https://www.gutenberg.org/files/43/43-h/43-h.htm","text/plain; charset=utf-8":"https://www.gutenberg.org/files/43/43-0.txt"},"download_Count":18756},{"id":205,"title":"Walden, and On The Duty Of Civil Disobedience","authors":[{"name":"Thoreau, Henry David","birt_Year":0,"death_Year":1862}],"translators":[],"subjects":["Authors, American -- 19th century -- Biography","Civil disobedience","Government, Resistance to","Natural history -- Massachusetts -- Walden Woods","Solitude","Thoreau, Henry David, 1817-1862 -- Homes and haunts -- Massachusetts -- Walden Woods","Walden Woods (Mass.) -- Social life and customs","Wilderness areas -- Massachusetts -- Walden Woods"],"bookshelves":[],"languages":["en"],"copyright":false,"media_Type":"Text","formats":{"application/epub+zip":"https://www.gutenberg.org/ebooks/205.epub.images","application/rdf+xml":"https://www.gutenberg.org/ebooks/205.rdf","application/x-mobipocket-ebook":"https://www.gutenberg.org/ebooks/205.kindle.images","application/zip":"https://www.gutenberg.org/files/205/205-0.zip","image/jpeg":"https://www.gutenberg.org/cache/epub/205/pg205.cover.small.jpg","text/html":"https://www.gutenberg.org/ebooks/205.html.images","text/html; charset=utf-8":"https://www.gutenberg.org/files/205/205-h.zip","text/plain; charset=utf-8":"https://www.gutenberg.org/files/205/205-0.txt"},"download_Count":14496},{"id":2554,"title":"Crime and Punishment","authors":[{"name":"Dostoyevsky, Fyodor","birt_Year":0,"death_Year":1881}],"translators":[{}],"subjects":["Crime -- Psychological aspects -- Fiction","Detective and mystery stories","Murder -- Fiction","Psychological fiction","Saint Petersburg (Russia) -- Fiction"],"bookshelves":["Best Books Ever Listings","Crime Fiction","Harvard Classics"],"languages":["en"],"copyright":false,"media_Type":"Text","formats":{"application/epub+zip":"https://www.gutenberg.org/ebooks/2554.epub.images","application/rdf+xml":"https://www.gutenberg.org/ebooks/2554.rdf","application/x-mobipocket-ebook":"https://www.gutenberg.org/ebooks/2554.kindle.images","image/jpeg":"https://www.gutenberg.org/cache/epub/2554/pg2554.cover.medium.jpg","text/html":"https://www.gutenberg.org/ebooks/2554.html.images","text/html; charset=utf-8":"https://www.gutenberg.org/files/2554/2554-h.zip","text/plain; charset=utf-8":"https://www.gutenberg.org/files/2554/2554-0.zip"},"download_Count":12560},{"id":32449,"title":"Japanese Girls and Women: Revised and Enlarged Edition","authors":[{"name":"Bacon, Alice Mabel","birt_Year":0,"death_Year":1918}],"translators":[],"subjects":["Japan -- Social life and customs -- 1868-1912","Women -- Japan -- Social conditions","Women -- Japan -- Social life and customs"],"bookshelves":[],"languages":["en"],"copyright":false,"media_Type":"Text","formats":{"application/epub+zip":"https://www.gutenberg.org/ebooks/32449.epub.images","application/rdf+xml":"https://www.gutenberg.org/ebooks/32449.rdf","application/x-mobipocket-ebook":"https://www.gutenberg.org/ebooks/32449.kindle.images","application/zip":"https://www.gutenberg.org/files/32449/32449-8.zip","image/jpeg":"https://www.gutenberg.org/cache/epub/32449/pg32449.cover.small.jpg","text/html":"https://www.gutenberg.org/ebooks/32449.html.images","text/html; charset=utf-8":"https://www.gutenberg.org/files/32449/32449-h/32449-h.htm","text/plain; charset=iso-8859-1":"https://www.gutenberg.org/files/32449/32449-8.txt","text/plain; charset=us-ascii":"https://www.gutenberg.org/files/32449/32449.zip","text/plain; charset=utf-8":"https://www.gutenberg.org/files/32449/32449-0.txt"},"download_Count":11543},{"id":160,"title":"The Awakening, and Selected Short Stories","authors":[{"name":"Chopin, Kate","birt_Year":0,"death_Year":1904}],"translators":[],"subjects":["Adultery -- Fiction","Louisiana -- Social life and customs -- Fiction","New Orleans (La.) -- Fiction","Self-actualization (Psychology) -- Fiction","Women -- Louisiana -- New Orleans -- Social conditions -- Fiction"],"bookshelves":["Banned Books List from the American Library Association","Banned Books from Anne Haight's list"],"languages":["en"],"copyright":false,"media_Type":"Text","formats":{"application/epub+zip":"https://www.gutenberg.org/ebooks/160.epub.images","application/rdf+xml":"https://www.gutenberg.org/ebooks/160.rdf","application/x-mobipocket-ebook":"https://www.gutenberg.org/ebooks/160.kindle.images","application/zip":"https://www.gutenberg.org/files/160/160-0.zip","image/jpeg":"https://www.gutenberg.org/cache/epub/160/pg160.cover.small.jpg","text/html":"https://www.gutenberg.org/ebooks/160.html.images","text/html; charset=utf-8":"https://www.gutenberg.org/files/160/160-h.zip","text/plain; charset=utf-8":"https://www.gutenberg.org/files/160/160-0.txt"},"download_Count":11343}]}